{
    "variable": [
        {
            "id": "baseUrl",
            "key": "baseUrl",
            "type": "string",
            "name": "string",
            "value": "http:\/\/localhost"
        }
    ],
    "info": {
        "name": "Laravel",
        "_postman_id": "9ba5e2c0-d0c6-4701-84b9-e40a75535bd8",
        "description": "",
        "schema": "https:\/\/schema.getpostman.com\/json\/collection\/v2.1.0\/collection.json"
    },
    "item": [
        {
            "name": "Endpoints",
            "description": "",
            "item": [
                {
                    "name": "GET api\/v1\/country\/list",
                    "request": {
                        "url": {
                            "host": "{{baseUrl}}",
                            "path": "api\/v1\/country\/list",
                            "query": [],
                            "raw": "{{baseUrl}}\/api\/v1\/country\/list"
                        },
                        "method": "GET",
                        "header": [
                            {
                                "key": "Content-Type",
                                "value": "application\/json"
                            },
                            {
                                "key": "Accept",
                                "value": "application\/json"
                            }
                        ],
                        "body": null,
                        "description": "",
                        "auth": {
                            "type": "noauth"
                        }
                    },
                    "response": [
                        {
                            "header": [
                                {
                                    "key": "cache-control",
                                    "value": "no-cache, private"
                                },
                                {
                                    "key": "content-type",
                                    "value": "application\/json"
                                },
                                {
                                    "key": "x-ratelimit-limit",
                                    "value": "60"
                                },
                                {
                                    "key": "x-ratelimit-remaining",
                                    "value": "59"
                                },
                                {
                                    "key": "access-control-allow-origin",
                                    "value": "*"
                                }
                            ],
                            "code": 200,
                            "body": "{\"status\":true,\"message\":\"success\",\"data\":{\"response\":{\"current_page\":1,\"data\":[{\"title_ar\":\"Liechtenstein\",\"title_en\":\"Benin\",\"isocode\":\"BES\",\"flag\":\"https:\\\/\\\/via.placeholder.com\\\/640x480.png\\\/0066cc?text=quis\",\"code\":\"MD\",\"created_at\":\"2023-06-25T15:18:54.000000Z\"},{\"title_ar\":\"Chad\",\"title_en\":\"Faroe Islands\",\"isocode\":\"HUN\",\"flag\":\"https:\\\/\\\/via.placeholder.com\\\/640x480.png\\\/003300?text=voluptatum\",\"code\":\"QA\",\"created_at\":\"2022-11-16T08:52:33.000000Z\"},{\"title_ar\":\"Tajikistan\",\"title_en\":\"British Virgin Islands\",\"isocode\":\"UMI\",\"flag\":\"https:\\\/\\\/via.placeholder.com\\\/640x480.png\\\/0033ee?text=et\",\"code\":\"FK\",\"created_at\":\"2023-03-22T07:55:35.000000Z\"},{\"title_ar\":\"Pitcairn Islands\",\"title_en\":\"British Virgin Islands\",\"isocode\":\"VCT\",\"flag\":\"https:\\\/\\\/via.placeholder.com\\\/640x480.png\\\/002222?text=doloribus\",\"code\":\"KP\",\"created_at\":\"2023-04-20T20:11:24.000000Z\"},{\"title_ar\":\"Turks and Caicos Islands\",\"title_en\":\"Antarctica (the territory South of 60 deg S)\",\"isocode\":\"ESH\",\"flag\":\"https:\\\/\\\/via.placeholder.com\\\/640x480.png\\\/007799?text=et\",\"code\":\"TG\",\"created_at\":\"2023-06-06T21:47:21.000000Z\"},{\"title_ar\":\"Syrian Arab Republic\",\"title_en\":\"Antarctica (the territory South of 60 deg S)\",\"isocode\":\"AUS\",\"flag\":\"https:\\\/\\\/via.placeholder.com\\\/640x480.png\\\/00aa66?text=est\",\"code\":\"SL\",\"created_at\":\"2022-12-20T14:03:04.000000Z\"},{\"title_ar\":\"Russian Federation\",\"title_en\":\"Brunei Darussalam\",\"isocode\":\"CZE\",\"flag\":\"https:\\\/\\\/via.placeholder.com\\\/640x480.png\\\/001155?text=nostrum\",\"code\":\"NU\",\"created_at\":\"2022-09-01T03:25:32.000000Z\"},{\"title_ar\":\"Kyrgyz Republic\",\"title_en\":\"Chad\",\"isocode\":\"GNQ\",\"flag\":\"https:\\\/\\\/via.placeholder.com\\\/640x480.png\\\/002222?text=nulla\",\"code\":\"CA\",\"created_at\":\"2022-10-20T09:23:16.000000Z\"},{\"title_ar\":\"Maldives\",\"title_en\":\"Bahrain\",\"isocode\":\"GGY\",\"flag\":\"https:\\\/\\\/via.placeholder.com\\\/640x480.png\\\/0066cc?text=id\",\"code\":\"CL\",\"created_at\":\"2022-09-15T17:00:07.000000Z\"},{\"title_ar\":\"Svalbard & Jan Mayen Islands\",\"title_en\":\"Lebanon\",\"isocode\":\"PAN\",\"flag\":\"https:\\\/\\\/via.placeholder.com\\\/640x480.png\\\/004499?text=deleniti\",\"code\":\"BZ\",\"created_at\":\"2023-06-07T21:08:07.000000Z\"}],\"first_page_url\":\"http:\\\/\\\/localhost\\\/api\\\/v1\\\/country\\\/list?page=1\",\"from\":1,\"last_page\":10,\"last_page_url\":\"http:\\\/\\\/localhost\\\/api\\\/v1\\\/country\\\/list?page=10\",\"links\":[{\"url\":null,\"label\":\"&laquo; Previous\",\"active\":false},{\"url\":\"http:\\\/\\\/localhost\\\/api\\\/v1\\\/country\\\/list?page=1\",\"label\":\"1\",\"active\":true},{\"url\":\"http:\\\/\\\/localhost\\\/api\\\/v1\\\/country\\\/list?page=2\",\"label\":\"2\",\"active\":false},{\"url\":\"http:\\\/\\\/localhost\\\/api\\\/v1\\\/country\\\/list?page=3\",\"label\":\"3\",\"active\":false},{\"url\":\"http:\\\/\\\/localhost\\\/api\\\/v1\\\/country\\\/list?page=4\",\"label\":\"4\",\"active\":false},{\"url\":\"http:\\\/\\\/localhost\\\/api\\\/v1\\\/country\\\/list?page=5\",\"label\":\"5\",\"active\":false},{\"url\":\"http:\\\/\\\/localhost\\\/api\\\/v1\\\/country\\\/list?page=6\",\"label\":\"6\",\"active\":false},{\"url\":\"http:\\\/\\\/localhost\\\/api\\\/v1\\\/country\\\/list?page=7\",\"label\":\"7\",\"active\":false},{\"url\":\"http:\\\/\\\/localhost\\\/api\\\/v1\\\/country\\\/list?page=8\",\"label\":\"8\",\"active\":false},{\"url\":\"http:\\\/\\\/localhost\\\/api\\\/v1\\\/country\\\/list?page=9\",\"label\":\"9\",\"active\":false},{\"url\":\"http:\\\/\\\/localhost\\\/api\\\/v1\\\/country\\\/list?page=10\",\"label\":\"10\",\"active\":false},{\"url\":\"http:\\\/\\\/localhost\\\/api\\\/v1\\\/country\\\/list?page=2\",\"label\":\"Next &raquo;\",\"active\":false}],\"next_page_url\":\"http:\\\/\\\/localhost\\\/api\\\/v1\\\/country\\\/list?page=2\",\"path\":\"http:\\\/\\\/localhost\\\/api\\\/v1\\\/country\\\/list\",\"per_page\":10,\"prev_page_url\":null,\"to\":10,\"total\":100}}}",
                            "name": ""
                        }
                    ]
                },
                {
                    "name": "GET api\/v1\/cities\/list",
                    "request": {
                        "url": {
                            "host": "{{baseUrl}}",
                            "path": "api\/v1\/cities\/list",
                            "query": [],
                            "raw": "{{baseUrl}}\/api\/v1\/cities\/list"
                        },
                        "method": "GET",
                        "header": [
                            {
                                "key": "Content-Type",
                                "value": "application\/json"
                            },
                            {
                                "key": "Accept",
                                "value": "application\/json"
                            }
                        ],
                        "body": null,
                        "description": "",
                        "auth": {
                            "type": "noauth"
                        }
                    },
                    "response": [
                        {
                            "header": [
                                {
                                    "key": "cache-control",
                                    "value": "no-cache, private"
                                },
                                {
                                    "key": "content-type",
                                    "value": "application\/json"
                                },
                                {
                                    "key": "x-ratelimit-limit",
                                    "value": "60"
                                },
                                {
                                    "key": "x-ratelimit-remaining",
                                    "value": "58"
                                },
                                {
                                    "key": "access-control-allow-origin",
                                    "value": "*"
                                }
                            ],
                            "code": 200,
                            "body": "{\"status\":true,\"message\":\"success\",\"data\":{\"response\":{\"current_page\":1,\"data\":[],\"first_page_url\":\"http:\\\/\\\/localhost\\\/api\\\/v1\\\/cities\\\/list?page=1\",\"from\":null,\"last_page\":1,\"last_page_url\":\"http:\\\/\\\/localhost\\\/api\\\/v1\\\/cities\\\/list?page=1\",\"links\":[{\"url\":null,\"label\":\"&laquo; Previous\",\"active\":false},{\"url\":\"http:\\\/\\\/localhost\\\/api\\\/v1\\\/cities\\\/list?page=1\",\"label\":\"1\",\"active\":true},{\"url\":null,\"label\":\"Next &raquo;\",\"active\":false}],\"next_page_url\":null,\"path\":\"http:\\\/\\\/localhost\\\/api\\\/v1\\\/cities\\\/list\",\"per_page\":10,\"prev_page_url\":null,\"to\":null,\"total\":0}}}",
                            "name": ""
                        }
                    ]
                },
                {
                    "name": "GET api\/v1\/areas\/list",
                    "request": {
                        "url": {
                            "host": "{{baseUrl}}",
                            "path": "api\/v1\/areas\/list",
                            "query": [],
                            "raw": "{{baseUrl}}\/api\/v1\/areas\/list"
                        },
                        "method": "GET",
                        "header": [
                            {
                                "key": "Content-Type",
                                "value": "application\/json"
                            },
                            {
                                "key": "Accept",
                                "value": "application\/json"
                            }
                        ],
                        "body": null,
                        "description": "",
                        "auth": {
                            "type": "noauth"
                        }
                    },
                    "response": [
                        {
                            "header": [
                                {
                                    "key": "cache-control",
                                    "value": "no-cache, private"
                                },
                                {
                                    "key": "content-type",
                                    "value": "application\/json"
                                },
                                {
                                    "key": "x-ratelimit-limit",
                                    "value": "60"
                                },
                                {
                                    "key": "x-ratelimit-remaining",
                                    "value": "57"
                                },
                                {
                                    "key": "access-control-allow-origin",
                                    "value": "*"
                                }
                            ],
                            "code": 200,
                            "body": "{\"status\":true,\"message\":\"success\",\"data\":{\"response\":{\"current_page\":1,\"data\":[],\"first_page_url\":\"http:\\\/\\\/localhost\\\/api\\\/v1\\\/areas\\\/list?page=1\",\"from\":null,\"last_page\":1,\"last_page_url\":\"http:\\\/\\\/localhost\\\/api\\\/v1\\\/areas\\\/list?page=1\",\"links\":[{\"url\":null,\"label\":\"&laquo; Previous\",\"active\":false},{\"url\":\"http:\\\/\\\/localhost\\\/api\\\/v1\\\/areas\\\/list?page=1\",\"label\":\"1\",\"active\":true},{\"url\":null,\"label\":\"Next &raquo;\",\"active\":false}],\"next_page_url\":null,\"path\":\"http:\\\/\\\/localhost\\\/api\\\/v1\\\/areas\\\/list\",\"per_page\":10,\"prev_page_url\":null,\"to\":null,\"total\":0}}}",
                            "name": ""
                        }
                    ]
                },
                {
                    "name": "GET api\/v1\/pricing-models\/list",
                    "request": {
                        "url": {
                            "host": "{{baseUrl}}",
                            "path": "api\/v1\/pricing-models\/list",
                            "query": [],
                            "raw": "{{baseUrl}}\/api\/v1\/pricing-models\/list"
                        },
                        "method": "GET",
                        "header": [
                            {
                                "key": "Content-Type",
                                "value": "application\/json"
                            },
                            {
                                "key": "Accept",
                                "value": "application\/json"
                            }
                        ],
                        "body": null,
                        "description": "",
                        "auth": {
                            "type": "noauth"
                        }
                    },
                    "response": [
                        {
                            "header": [
                                {
                                    "key": "cache-control",
                                    "value": "no-cache, private"
                                },
                                {
                                    "key": "content-type",
                                    "value": "application\/json"
                                },
                                {
                                    "key": "x-ratelimit-limit",
                                    "value": "60"
                                },
                                {
                                    "key": "x-ratelimit-remaining",
                                    "value": "56"
                                },
                                {
                                    "key": "access-control-allow-origin",
                                    "value": "*"
                                }
                            ],
                            "code": 200,
                            "body": "{\"status\":true,\"message\":\"success\",\"data\":{\"response\":{\"current_page\":1,\"data\":[],\"first_page_url\":\"http:\\\/\\\/localhost\\\/api\\\/v1\\\/pricing-models\\\/list?page=1\",\"from\":null,\"last_page\":1,\"last_page_url\":\"http:\\\/\\\/localhost\\\/api\\\/v1\\\/pricing-models\\\/list?page=1\",\"links\":[{\"url\":null,\"label\":\"&laquo; Previous\",\"active\":false},{\"url\":\"http:\\\/\\\/localhost\\\/api\\\/v1\\\/pricing-models\\\/list?page=1\",\"label\":\"1\",\"active\":true},{\"url\":null,\"label\":\"Next &raquo;\",\"active\":false}],\"next_page_url\":null,\"path\":\"http:\\\/\\\/localhost\\\/api\\\/v1\\\/pricing-models\\\/list\",\"per_page\":10,\"prev_page_url\":null,\"to\":null,\"total\":0}}}",
                            "name": ""
                        }
                    ]
                },
                {
                    "name": "GET api\/v1\/sectors\/list",
                    "request": {
                        "url": {
                            "host": "{{baseUrl}}",
                            "path": "api\/v1\/sectors\/list",
                            "query": [],
                            "raw": "{{baseUrl}}\/api\/v1\/sectors\/list"
                        },
                        "method": "GET",
                        "header": [
                            {
                                "key": "Content-Type",
                                "value": "application\/json"
                            },
                            {
                                "key": "Accept",
                                "value": "application\/json"
                            }
                        ],
                        "body": null,
                        "description": "",
                        "auth": {
                            "type": "noauth"
                        }
                    },
                    "response": [
                        {
                            "header": [
                                {
                                    "key": "cache-control",
                                    "value": "no-cache, private"
                                },
                                {
                                    "key": "content-type",
                                    "value": "application\/json"
                                },
                                {
                                    "key": "x-ratelimit-limit",
                                    "value": "60"
                                },
                                {
                                    "key": "x-ratelimit-remaining",
                                    "value": "55"
                                },
                                {
                                    "key": "access-control-allow-origin",
                                    "value": "*"
                                }
                            ],
                            "code": 200,
                            "body": "{\"status\":true,\"message\":\"success\",\"data\":{\"response\":{\"current_page\":1,\"data\":[],\"first_page_url\":\"http:\\\/\\\/localhost\\\/api\\\/v1\\\/sectors\\\/list?page=1\",\"from\":null,\"last_page\":1,\"last_page_url\":\"http:\\\/\\\/localhost\\\/api\\\/v1\\\/sectors\\\/list?page=1\",\"links\":[{\"url\":null,\"label\":\"&laquo; Previous\",\"active\":false},{\"url\":\"http:\\\/\\\/localhost\\\/api\\\/v1\\\/sectors\\\/list?page=1\",\"label\":\"1\",\"active\":true},{\"url\":null,\"label\":\"Next &raquo;\",\"active\":false}],\"next_page_url\":null,\"path\":\"http:\\\/\\\/localhost\\\/api\\\/v1\\\/sectors\\\/list\",\"per_page\":10,\"prev_page_url\":null,\"to\":null,\"total\":0}}}",
                            "name": ""
                        }
                    ]
                },
                {
                    "name": "GET api\/v1\/services\/list",
                    "request": {
                        "url": {
                            "host": "{{baseUrl}}",
                            "path": "api\/v1\/services\/list",
                            "query": [],
                            "raw": "{{baseUrl}}\/api\/v1\/services\/list"
                        },
                        "method": "GET",
                        "header": [
                            {
                                "key": "Content-Type",
                                "value": "application\/json"
                            },
                            {
                                "key": "Accept",
                                "value": "application\/json"
                            }
                        ],
                        "body": null,
                        "description": "",
                        "auth": {
                            "type": "noauth"
                        }
                    },
                    "response": [
                        {
                            "header": [
                                {
                                    "key": "cache-control",
                                    "value": "no-cache, private"
                                },
                                {
                                    "key": "content-type",
                                    "value": "application\/json"
                                },
                                {
                                    "key": "x-ratelimit-limit",
                                    "value": "60"
                                },
                                {
                                    "key": "x-ratelimit-remaining",
                                    "value": "54"
                                },
                                {
                                    "key": "access-control-allow-origin",
                                    "value": "*"
                                }
                            ],
                            "code": 200,
                            "body": "{\"status\":true,\"message\":\"success\",\"data\":{\"response\":{\"current_page\":1,\"data\":[],\"first_page_url\":\"http:\\\/\\\/localhost\\\/api\\\/v1\\\/services\\\/list?page=1\",\"from\":null,\"last_page\":1,\"last_page_url\":\"http:\\\/\\\/localhost\\\/api\\\/v1\\\/services\\\/list?page=1\",\"links\":[{\"url\":null,\"label\":\"&laquo; Previous\",\"active\":false},{\"url\":\"http:\\\/\\\/localhost\\\/api\\\/v1\\\/services\\\/list?page=1\",\"label\":\"1\",\"active\":true},{\"url\":null,\"label\":\"Next &raquo;\",\"active\":false}],\"next_page_url\":null,\"path\":\"http:\\\/\\\/localhost\\\/api\\\/v1\\\/services\\\/list\",\"per_page\":10,\"prev_page_url\":null,\"to\":null,\"total\":0}}}",
                            "name": ""
                        }
                    ]
                }
            ]
        }
    ],
    "auth": {
        "type": "noauth"
    }
}